id;tracking_code;date;details;invoice_id
1;Mouse withdrawal;2020-02-18T17:03:00;payment unleash Jamaican Dollar;1
2;Rest;2020-02-19T12:19:30;Plains;2
3;Quality Plastic plum;2020-02-18T16:39:52;Minnesota parsing;3
4;Gorgeous Soft Hat Generic;2020-02-19T13:07:04;Architect SSL;4
5;zero tolerance;2020-02-19T10:03:23;user-facing CSS;5
6;ADP Ouguiya;2020-02-19T05:59:51;Garden;6
7;auxiliary;2020-02-19T14:15:51;functionalities Bedfordshire withdrawal;7
8;Data;2020-02-18T17:13:52;Viaduct hybrid;8
9;mesh;2020-02-19T15:39:31;human-resource Shoes Wooden;9
10;calculate value-added Metal;2020-02-19T13:38:25;Re-engineered withdrawal Ball;10
